<?xml version="1.0" encoding="utf-8"?>
<!-- Generator: Adobe Illustrator 16.0.2, SVG Export Plug-In . SVG Version: 6.00 Build 0)  -->
<!DOCTYPE svg PUBLIC "-//W3C//DTD SVG 1.1//EN" "http://www.w3.org/Graphics/SVG/1.1/DTD/svg11.dtd">
<svg version="1.1" xmlns="http://www.w3.org/2000/svg" xmlns:xlink="http://www.w3.org/1999/xlink" x="0px" y="0px"
	 width="55.125px" height="20.792px" viewBox="0 0 55.125 20.792" enable-background="new 0 0 55.125 20.792" xml:space="preserve">
<g id="Layer_1">
</g>
<g id="star">
	<polygon fill="#F75510" points="10.588,2.557 12.557,7.885 18.317,7.917 13.838,11.557 15.495,17.088 10.588,13.901 5.776,17.104 
		7.432,11.573 2.859,7.901 8.667,7.87 	"/>
	<polygon fill="#C7C7C7" points="27.588,2.557 29.557,7.885 35.317,7.917 30.838,11.557 32.495,17.088 27.588,13.901 22.776,17.104 
		24.432,11.573 19.859,7.901 25.667,7.87 	"/>
	<polygon fill="#F75510" points="44.651,2.557 44.651,13.901 39.838,17.104 41.495,11.573 36.922,7.901 42.729,7.87 	"/>
	<polygon fill="#C7C6C6" points="44.651,2.557 46.62,7.885 52.38,7.917 47.901,11.557 49.557,17.088 44.651,13.901 	"/>
</g>
</svg>
